[gd_scene load_steps=4 format=2]

[ext_resource path="res://fonts/darkforest.ttf" type="DynamicFontData" id=1]
[ext_resource path="res://HUD.gd" type="Script" id=2]

[sub_resource type="DynamicFont" id=1]
size = 70
extra_spacing_char = 5
font_data = ExtResource( 1 )

[node name="HUD" type="CanvasLayer"]
script = ExtResource( 2 )

[node name="ScoreLabel" type="Label" parent="."]
anchor_left = 0.5
anchor_right = 0.5
margin_left = -240.0
margin_top = 30.0
margin_right = 241.0
margin_bottom = 93.0
custom_fonts/font = SubResource( 1 )
text = "0"
align = 1

[node name="MessageLabel" type="Label" parent="."]
anchor_left = 0.5
anchor_top = 0.5
anchor_right = 0.5
anchor_bottom = 0.5
margin_left = -240.0
margin_top = -86.5
margin_right = 240.0
margin_bottom = 86.5
custom_fonts/font = SubResource( 1 )
text = "Dodge The Creeps 2D"
align = 1
valign = 1
autowrap = true

[node name="Button" type="Button" parent="."]
anchor_left = 0.5
anchor_top = 0.5
anchor_right = 0.5
anchor_bottom = 0.5
margin_left = -120.0
margin_top = 240.0
margin_right = 120.0
margin_bottom = 360.0
custom_fonts/font = SubResource( 1 )
text = "Play"

[node name="QuitButton" type="Button" parent="."]
anchor_left = 0.5
anchor_top = 0.5
anchor_right = 0.5
anchor_bottom = 0.5
margin_left = -120.0
margin_top = 400.0
margin_right = 120.0
margin_bottom = 517.0
custom_fonts/font = SubResource( 1 )
text = "Quit"

[node name="MessageTimer" type="Timer" parent="."]
wait_time = 2.0
one_shot = true

[connection signal="pressed" from="Button" to="." method="_on_Button_pressed"]
[connection signal="pressed" from="QuitButton" to="." method="_on_QuitButton_pressed"]
[connection signal="timeout" from="MessageTimer" to="." method="_on_MessageTimer_timeout"]
