[gd_scene load_steps=6 format=2]

[ext_resource path="res://art/player-walk-1.png" type="Texture" id=2]
[ext_resource path="res://art/player-walk-2.png" type="Texture" id=4]
[ext_resource path="res://Player.gd" type="Script" id=5]

[sub_resource type="SpriteFrames" id=1]
animations = [ {
"frames": [ ExtResource( 2 ), ExtResource( 4 ) ],
"loop": true,
"name": "right",
"speed": 5.0
} ]

[sub_resource type="CapsuleShape2D" id=2]
radius = 24.2534
height = 13.812

[node name="Player" type="Area2D"]
position = Vector2( -0.00012207, 0.173615 )
script = ExtResource( 5 )

[node name="AnimatedSprite" type="AnimatedSprite" parent="."]
scale = Vector2( 0.7, 0.7 )
frames = SubResource( 1 )
animation = "right"

[node name="CollisionShape2D" type="CollisionShape2D" parent="."]
scale = Vector2( 1.5, 1.5 )
shape = SubResource( 2 )

[connection signal="body_entered" from="." to="." method="_on_Player_body_entered"]
